/*
WARNING: Do NOT edit the input and output ports in this file in a text
editor if you plan to continue editing the block that represents it in
the Block Editor! File corruption is VERY likely to occur.
*/
/*
Copyright (C) 1991-2013 Altera Corporation
Your use of Altera Corporation's design tools, logic functions 
and other software and tools, and its AMPP partner logic 
functions, and any output files from any of the foregoing 
(including device programming or simulation files), and any 
associated documentation or information are expressly subject 
to the terms and conditions of the Altera Program License 
Subscription Agreement, Altera MegaCore Function License 
Agreement, or other applicable license agreement, including, 
without limitation, that your use is for the sole purpose of 
programming logic devices manufactured by Altera and sold by 
Altera or its authorized distributors.  Please refer to the 
applicable agreement for further details.
*/
(header "graphic" (version "1.4"))
(pin
	(input)
	(rect 16 96 184 112)
	(text "INPUT" (rect 125 0 153 10)(font "Arial" (font_size 6)))
	(text "clk" (rect 5 0 20 12)(font "Arial" ))
	(pt 168 8)
	(drawing
		(line (pt 84 12)(pt 109 12))
		(line (pt 84 4)(pt 109 4))
		(line (pt 113 8)(pt 168 8))
		(line (pt 84 12)(pt 84 4))
		(line (pt 109 4)(pt 113 8))
		(line (pt 109 12)(pt 113 8))
	)
	(text "VCC" (rect 128 7 148 17)(font "Arial" (font_size 6)))
)
(pin
	(input)
	(rect 16 160 184 176)
	(text "INPUT" (rect 125 0 153 10)(font "Arial" (font_size 6)))
	(text "rst" (rect 5 0 18 12)(font "Arial" ))
	(pt 168 8)
	(drawing
		(line (pt 84 12)(pt 109 12))
		(line (pt 84 4)(pt 109 4))
		(line (pt 113 8)(pt 168 8))
		(line (pt 84 12)(pt 84 4))
		(line (pt 109 4)(pt 113 8))
		(line (pt 109 12)(pt 113 8))
	)
	(text "VCC" (rect 128 7 148 17)(font "Arial" (font_size 6)))
)
(pin
	(input)
	(rect 16 192 184 208)
	(text "INPUT" (rect 125 0 153 10)(font "Arial" (font_size 6)))
	(text "x" (rect 5 0 11 12)(font "Arial" ))
	(pt 168 8)
	(drawing
		(line (pt 84 12)(pt 109 12))
		(line (pt 84 4)(pt 109 4))
		(line (pt 113 8)(pt 168 8))
		(line (pt 84 12)(pt 84 4))
		(line (pt 109 4)(pt 113 8))
		(line (pt 109 12)(pt 113 8))
	)
	(text "VCC" (rect 128 7 148 17)(font "Arial" (font_size 6)))
)
(pin
	(output)
	(rect 464 128 640 144)
	(text "OUTPUT" (rect 1 0 39 10)(font "Arial" (font_size 6)))
	(text "y_bd[1..0]" (rect 90 0 140 12)(font "Arial" ))
	(pt 0 8)
	(drawing
		(line (pt 0 8)(pt 52 8))
		(line (pt 52 4)(pt 78 4))
		(line (pt 52 12)(pt 78 12))
		(line (pt 52 12)(pt 52 4))
		(line (pt 78 4)(pt 82 8))
		(line (pt 82 8)(pt 78 12))
		(line (pt 78 12)(pt 82 8))
	)
)
(pin
	(output)
	(rect 464 240 640 256)
	(text "OUTPUT" (rect 1 0 39 10)(font "Arial" (font_size 6)))
	(text "y_vhdl[1..0]" (rect 90 0 150 12)(font "Arial" ))
	(pt 0 8)
	(drawing
		(line (pt 0 8)(pt 52 8))
		(line (pt 52 4)(pt 78 4))
		(line (pt 52 12)(pt 78 12))
		(line (pt 52 12)(pt 52 4))
		(line (pt 78 4)(pt 82 8))
		(line (pt 82 8)(pt 78 12))
		(line (pt 78 12)(pt 82 8))
	)
)
(pin
	(output)
	(rect 464 376 640 392)
	(text "OUTPUT" (rect 1 0 39 10)(font "Arial" (font_size 6)))
	(text "y_ahdl[1..0]" (rect 90 0 149 12)(font "Arial" ))
	(pt 0 8)
	(drawing
		(line (pt 0 8)(pt 52 8))
		(line (pt 52 4)(pt 78 4))
		(line (pt 52 12)(pt 78 12))
		(line (pt 52 12)(pt 52 4))
		(line (pt 78 4)(pt 82 8))
		(line (pt 82 8)(pt 78 12))
		(line (pt 78 12)(pt 82 8))
	)
)
(symbol
	(rect 256 216 392 328)
	(text "FK_VHDL" (rect 5 0 54 12)(font "Arial" ))
	(text "inst2" (rect 8 96 31 108)(font "Arial" ))
	(port
		(pt 0 32)
		(input)
		(text "clk" (rect 0 0 14 12)(font "Arial" ))
		(text "clk" (rect 21 27 35 39)(font "Arial" ))
		(line (pt 0 32)(pt 16 32))
	)
	(port
		(pt 0 48)
		(input)
		(text "rst" (rect 0 0 12 12)(font "Arial" ))
		(text "rst" (rect 21 43 33 55)(font "Arial" ))
		(line (pt 0 48)(pt 16 48))
	)
	(port
		(pt 0 64)
		(input)
		(text "x" (rect 0 0 5 12)(font "Arial" ))
		(text "x" (rect 21 59 26 71)(font "Arial" ))
		(line (pt 0 64)(pt 16 64))
	)
	(port
		(pt 136 32)
		(output)
		(text "y[1..0]" (rect 0 0 33 12)(font "Arial" ))
		(text "y[1..0]" (rect 88 27 121 39)(font "Arial" ))
		(line (pt 136 32)(pt 120 32)(line_width 3))
	)
	(drawing
		(rectangle (rect 16 16 120 96))
	)
)
(symbol
	(rect 256 352 400 464)
	(text "FK_AHDL" (rect 5 0 54 12)(font "Arial" ))
	(text "inst3" (rect 8 96 31 108)(font "Arial" ))
	(port
		(pt 0 32)
		(input)
		(text "clk" (rect 0 0 14 12)(font "Arial" ))
		(text "clk" (rect 21 27 35 39)(font "Arial" ))
		(line (pt 0 32)(pt 16 32))
	)
	(port
		(pt 0 48)
		(input)
		(text "rst" (rect 0 0 12 12)(font "Arial" ))
		(text "rst" (rect 21 43 33 55)(font "Arial" ))
		(line (pt 0 48)(pt 16 48))
	)
	(port
		(pt 0 64)
		(input)
		(text "x_in" (rect 0 0 20 12)(font "Arial" ))
		(text "x_in" (rect 21 59 41 71)(font "Arial" ))
		(line (pt 0 64)(pt 16 64))
	)
	(port
		(pt 144 32)
		(output)
		(text "y[1..0]" (rect 0 0 33 12)(font "Arial" ))
		(text "y[1..0]" (rect 96 27 129 39)(font "Arial" ))
		(line (pt 144 32)(pt 128 32)(line_width 3))
	)
	(drawing
		(rectangle (rect 16 16 128 96))
	)
)
(symbol
	(rect 272 104 368 200)
	(text "Faltungskodierer" (rect 5 0 99 14)(font "Arial" (font_size 8)))
	(text "inst" (rect 8 80 25 92)(font "Arial" ))
	(port
		(pt 0 32)
		(input)
		(text "x" (rect 0 0 7 14)(font "Arial" (font_size 8)))
		(text "x" (rect 21 27 28 41)(font "Arial" (font_size 8)))
		(line (pt 0 32)(pt 16 32))
	)
	(port
		(pt 0 48)
		(input)
		(text "clk" (rect 0 0 15 14)(font "Arial" (font_size 8)))
		(text "clk" (rect 21 43 36 57)(font "Arial" (font_size 8)))
		(line (pt 0 48)(pt 16 48))
	)
	(port
		(pt 0 64)
		(input)
		(text "rst" (rect 0 0 15 14)(font "Arial" (font_size 8)))
		(text "rst" (rect 21 59 36 73)(font "Arial" (font_size 8)))
		(line (pt 0 64)(pt 16 64))
	)
	(port
		(pt 96 32)
		(output)
		(text "y[1..0]" (rect 0 0 35 14)(font "Arial" (font_size 8)))
		(text "y[1..0]" (rect 40 27 75 41)(font "Arial" (font_size 8)))
		(line (pt 96 32)(pt 80 32)(line_width 3))
	)
	(drawing
		(rectangle (rect 16 16 80 80))
	)
)
(connector
	(pt 240 384)
	(pt 256 384)
)
(connector
	(pt 240 248)
	(pt 256 248)
)
(connector
	(pt 240 248)
	(pt 240 384)
)
(connector
	(pt 240 152)
	(pt 272 152)
)
(connector
	(pt 224 400)
	(pt 256 400)
)
(connector
	(pt 224 264)
	(pt 256 264)
)
(connector
	(pt 224 264)
	(pt 224 400)
)
(connector
	(pt 240 104)
	(pt 240 152)
)
(connector
	(pt 240 152)
	(pt 240 248)
)
(connector
	(pt 224 168)
	(pt 224 264)
)
(connector
	(pt 184 104)
	(pt 240 104)
)
(connector
	(pt 208 416)
	(pt 256 416)
)
(connector
	(pt 256 280)
	(pt 208 280)
)
(connector
	(pt 208 200)
	(pt 184 200)
)
(connector
	(pt 208 280)
	(pt 208 416)
)
(connector
	(pt 184 168)
	(pt 224 168)
)
(connector
	(pt 224 168)
	(pt 272 168)
)
(connector
	(pt 208 136)
	(pt 272 136)
)
(connector
	(pt 208 136)
	(pt 208 200)
)
(connector
	(pt 208 200)
	(pt 208 280)
)
(connector
	(pt 368 136)
	(pt 464 136)
	(bus)
)
(connector
	(pt 392 248)
	(pt 464 248)
	(bus)
)
(connector
	(pt 400 384)
	(pt 464 384)
	(bus)
)
(junction (pt 240 248))
(junction (pt 240 152))
(junction (pt 224 264))
(junction (pt 224 168))
(junction (pt 208 280))
(junction (pt 208 200))
